{
    "MyTarot": [
        {
            "name": "The Fool",
            "suit": "major",
            "rank": 0,
            "keywords": "freedom, faith, inexperience, innocence",
            "meaning_upright": "Freeing yourself from limitation\nExpressing joy and youthful vigor\nBeing open-minded\nTaking a leap of faith\nAttuning yourself to your instincts\nBeing eager or curious\nExploring your potential\nEmbracing innovation and change",
            "meaning_reversed": "Being gullible and naive\nTaking unnecessary risks\nFailing to be serious when required\nBeing silly or distracted\nLacking experience\nFailing to honor well-established traditions and limits\nBehaving inappropriately",
            "image": "http://dodecahedroid.com/pcio-tarot/rwpop1910/rwfool.jpg"
        },
        {
            "name": "The Magician",
            "suit": "major",
            "rank": 1,
            "keywords": "capability, empowerment, activity",
            "meaning_upright": "Taking appropriate action\nReceiving guidance from a higher power\nBecoming a channel of divine will\nExpressing masculine energy in appropriate and constructive ways\nBeing yourself in every way",
            "meaning_reversed": "Inflating your own ego\nAbusing talents\nManipulating or deceiving others\nBeing too aggressive\nUsing cheap illusions to dazzle others\nRefusing to invest the time and effort needed to master your craft\nTaking shortcuts",
            "image": "http://dodecahedroid.com/pcio-tarot/rwpop1910/rwmagician.jpg"
        },
        {
            "name": "The Papess/High Priestess",
            "suit": "major",
            "rank": 2,
            "keywords": "intuition, reflection, purity, initiation",
            "meaning_upright": "Listening to your feelings and intuitions\nExploring unconventional spirituality\nKeeping secrets\nBeing receptive\nReflecting instead of acting\nObserving others\nPreserving purity",
            "meaning_reversed": "Being aloof\nObsessing on secrets and conspiracies\nRejecting guidance from spirit or intuition\nRevealing all\nIgnoring gut feelings\nRefusing to become involved, even when involvement is appropriate",
            "image": "http://dodecahedroid.com/pcio-tarot/rwpop1910/rwhighpriestess.jpg"
        },
        {
            "name": "The Empress",
            "suit": "major",
            "rank": 3,
            "keywords": "fertility, productivity, ripeness, nurturing",
            "meaning_upright": "Nurturing yourself and others\nBearing fruit\nCelebrating your body\nBearing (literal or figurative) children\nReveling in luxury\nMothering those around you in positive ways\nEnjoying your sexuality\nGetting things done",
            "meaning_reversed": "Overindulging\nBeing greedy\nSmothering someone with attention\nDebilitating someone by being overprotective\nInhibiting productivity by obsessing on productivity\nBeing overcome by addictive behavior",
            "image": "http://dodecahedroid.com/pcio-tarot/rwpop1910/rwempress.jpg"
        },
        {
            "name": "The Emperor",
            "suit": "major",
            "rank": 4,
            "keywords": "authority, regulation, direction, structure",
            "meaning_upright": "Exercising authority\nDefining limits\nDirecting the flow of work\nCommunicating clear guidelines\nBeing in control of yourself and others\nTempering aggressive masculinity with wisdom and experience",
            "meaning_reversed": "Micromanaging\nCrushing the creativity of others with a rigid, iron-fisted approach\nInsisting on getting your own way\nAssuming a dictatorial mindset\nUsing overt force to achieve your goals and maintain order",
            "image": "http://dodecahedroid.com/pcio-tarot/rwpop1910/rwemperor.jpg"
        },
        {
            "name": "The Pope/Hierophant",
            "suit": "major",
            "rank": 5,
            "keywords": "guidance, knowledge, revelation, belief",
            "meaning_upright": "Teaching or guiding others\nSearching for the truth\nAsking for guidance from a higher power\nAcknowledging the wisdom and experience of others\nTaking vows\nEngaging in heartfelt rituals\nVolunteering",
            "meaning_reversed": "Using experience as a means of manipulating or misguiding others\nBeing dogmatic\nFavoring tradition over what is expedient or necessary\nGoing through the motions of empty rituals\nConcealing wisdom\nRestricting access to spiritual truths or the gods",
            "image": "http://dodecahedroid.com/pcio-tarot/rwpop1910/rwhierophant.jpg"
        },
        {
            "name": "The Lovers",
            "suit": "major",
            "rank": 6,
            "keywords": "love, passion, unity, choice",
            "meaning_upright": "Being in love\nShowing your love to others\nExpressing passion or romantic feelings\nAligning yourself with groups or like-minded others\nBringing people together\nMaking well-informed decisions",
            "meaning_reversed": "Debilitating passion\nAllowing an unhealthy desire for love to motivate destructive behavior\nDisrupting unity\nWorking against the best interests of those who care about you\nTaking ill-informed decisions",
            "image": "http://dodecahedroid.com/pcio-tarot/rwpop1910/rwlovers.jpg"
        },
        {
            "name": "The Chariot",
            "suit": "major",
            "rank": 7,
            "keywords": "advancement, victory, triumph, success",
            "meaning_upright": "Breaking through barriers\nMoving forward with confidence and authority\nReaching the pinnacle of success\nBasking in the glory of achievement\nGuiding an effort to total victory\nEstablishing yourself as a worthy leader",
            "meaning_reversed": "Resting on laurels\nRiding roughshod over the feelings or expectations of others\nFocusing more on past successes than future opportunities\nFailing to rein in impulsive behavior",
            "image": "http://dodecahedroid.com/pcio-tarot/rwpop1910/rwchariot.jpg"
        },
        {
            "name": "Strength",
            "suit": "major",
            "rank": 8,
            "keywords": "discipline, boldness, self-discipline, power, vitality",
            "meaning_upright": "Imposing restrictions on yourself for your own benefit\nBringing your passions under the control of reason\nResisting impulses that work against your best interests\nTaking bold action",
            "meaning_reversed": "Indulging weakness, even when you know it will damage your health and happiness\nLanguishing in addiction\nAllowing your instincts to tame and conquer you\nFailing to take a stand when necessary",
            "image": "http://dodecahedroid.com/pcio-tarot/rwpop1910/rwstrength.jpg"
        },
        {
            "name": "The Hermit",
            "suit": "major",
            "rank": 9,
            "keywords": "solitude, experience, stillness, withdrawal",
            "meaning_upright": "Becoming or seeking out a guru\nGoing on a retreat\nRecharging spiritual or creative batteries\nLighting the way for those with less experience\nStepping back to gain perspective",
            "meaning_reversed": "Being a loner\nFearing contact with others\nBecoming a know-it-all\nInflating claims of expertise\nHiding your skills and talents out of fear of unworthiness",
            "image": "http://dodecahedroid.com/pcio-tarot/rwpop1910/rwhermit.jpg"
        },
        {
            "name": "The Wheel",
            "suit": "major",
            "rank": 10,
            "keywords": "luck, randomness, cycles, karma, fate, revolution",
            "meaning_upright": "Allowing events to unfold\nSeeing the larger pattern in everyday events\nTrusting your luck\nWatching for cycles\nBelieving that \"what goes around, comes around",
            "meaning_reversed": "Losing money gambling\nRefusing to do your part to bring a plan to fruition\nTaking a fatalistic approach to life\nFighting the natural course of events",
            "image": "http://dodecahedroid.com/pcio-tarot/rwpop1910/rwwheelfortune.jpg"
        },
        {
            "name": "Justice",
            "suit": "major",
            "rank": 11,
            "keywords": "balance, law, fairness, objectivity",
            "meaning_upright": "Making an objective decision\nWeighing an issue carefully before taking action\nAppropriately scaling your reaction to a situation\nGetting all the facts\nConsidering evidence\nDeliberating",
            "meaning_reversed": "Delivering harsh criticism\nObsessing on rules and regulations\nPlaying by the book even when it is destructive or counterproductive to do so\nConfusing snap decisions with timely action\nPlaying favorites",
            "image": "http://dodecahedroid.com/pcio-tarot/rwpop1910/rwjustice.jpg"
        },
        {
            "name": "The Hanged Man",
            "suit": "major",
            "rank": 12,
            "keywords": "enlightenment, sacrifice, perspective, suspension, reversals",
            "meaning_upright": "Seeing growth opportunities in unpleasant events\nExperiencing a dramatic change in personal perspective\nMaking the best of an unforeseen change in your life or work\nSuspending disbelief\nMaking sacrifices",
            "meaning_reversed": "Being untrue to yourself and your values\nRefusing to make sacrifices when appropriate\nRefusing to adapt to new situations\nBlaming others\nProfiting at the expense of others",
            "image": "http://dodecahedroid.com/pcio-tarot/rwpop1910/rwhangedman.jpg"
        },
        {
            "name": "Death",
            "suit": "major",
            "rank": 13,
            "keywords": "ending, conclusion, transition, passage, departure",
            "meaning_upright": "Bringing an unpleasant phase of life to an end\nRecognizing and celebrating the conclusion of something\nPutting bad habits to rest\nBecoming a new person\nLeaving one person, place, or thing for another\nLetting go",
            "meaning_reversed": "Obsessing on death and dying\nRefusing to give up old habits or unhealthy relationships\nInsisting that everything and everyone should stay the same forever\nFailing to take good care of yourself",
            "image": "http://dodecahedroid.com/pcio-tarot/rwpop1910/rwdeath.jpg"
        },
        {
            "name": "Temperance",
            "suit": "major",
            "rank": 14,
            "keywords": "blending, synthesis, mediation, combination, harmony",
            "meaning_upright": "Bringing opposites together\nModerating your actions or emotions\nFinding middle ground\nReaching compromises\nSynthesizing solutions that please everyone involved\nUsing the old to make something new",
            "meaning_reversed": "Going to extremes\nDisrupting group efforts\nIgnoring healthy approaches to life\nBecoming an addict\nPracticing gluttony\nTearing something or someone apart\nBreaking alliances",
            "image": "http://dodecahedroid.com/pcio-tarot/rwpop1910/rwtemperance.jpg"
        },
        {
            "name": "The Devil",
            "suit": "major",
            "rank": 15,
            "keywords": "shadow, materialism, bondage, delusion",
            "meaning_upright": "Appreciating the luxuries that life has to offer\nBeing comfortable in your own skin\nEnjoying your sexuality\nSplurging on an expensive personal item\nEmbracing the fact that everyone has a darker side\nDealing with unhealthy impulses in healthy ways",
            "meaning_reversed": "Putting excessive emphasis on appearances\nAlways wanting more\nValuing possessions more than people or relationships\nAllowing base instincts to govern your life\nBeing selfish\nAttributing your own dark impulses to outside forces or other people",
            "image": "http://dodecahedroid.com/pcio-tarot/rwpop1910/rwdevil.jpg"
        },
        {
            "name": "The Tower",
            "suit": "major",
            "rank": 16,
            "keywords": "demolition, upheaval, deconstruction, disaster, destruction",
            "meaning_upright": "Breaking out of old, confining habits and mindsets\nClearing the way for new growth\nDispelling the influence of an inflated ego\nGetting back to basics\nStripping away harmful illusions\nReceiving sudden insight",
            "meaning_reversed": "Clinging to traditions that repress growth\nEngaging in willful blindness\nRejecting evidence that change is needed\nIgnoring guidance from a higher power\nMaliciously engaging in destructive behavior",
            "image": "http://dodecahedroid.com/pcio-tarot/rwpop1910/rwtower.jpg"
        },
        {
            "name": "The Star",
            "suit": "major",
            "rank": 17,
            "keywords": "hope, optimism, openness, certainty, faith, longing, truth",
            "meaning_upright": "Hoping for the best\nBelieving good things happen to good people\nSeeing events in the best possible light\nAdopting a generous spirit\nSeeking guidance from above\nEmbracing possibility over probability",
            "meaning_reversed": "Denying unpleasant truths\nDenying personal accountability and saying, \"Things just happen!\" Ignoring signs and omens\nPreferring illusion to reality\nSpreading pessimism and stinginess of spirit",
            "image": "http://dodecahedroid.com/pcio-tarot/rwpop1910/rwstar.jpg"
        },
        {
            "name": "The Moon",
            "suit": "major",
            "rank": 18,
            "keywords": "mystery, fantasy, imagination, dreams, uncertainty",
            "meaning_upright": "Enjoying healthy fantasies and daydreams\nUsing your imagination\nPracticing magic or celebrating the magic of everyday life\nAttuning yourself to the cycles of nature\nEmbracing the unknown",
            "meaning_reversed": "Becoming unable to separate fantasy from reality\nSuffering from delusions\nLosing your appreciation for the fantastic or magical\nAdopting a ruthlessly logical mindset\nFailing to appreciate life's mysteries",
            "image": "http://dodecahedroid.com/pcio-tarot/rwpop1910/rwmoon.jpg"
        },
        {
            "name": "The Sun",
            "suit": "major",
            "rank": 19,
            "keywords": "joy, brilliance, validation, attention, energy",
            "meaning_upright": "Seeing things clearly\nExperiencing intense joy\nCelebrating your own successes\nKnowing you're good at what you do\nGaining recognition for your personal genius",
            "meaning_reversed": "Being dazzled by your own accomplishments\nBecoming absorbed in your own self-image\nFeeling rushed and distracted\nExerting yourself to the point of exhaustion\nOverstating your abilities or misrepresenting your achievements",
            "image": "http://dodecahedroid.com/pcio-tarot/rwpop1910/rwsun.jpg"
        },
        {
            "name": "Judgement",
            "suit": "major",
            "rank": 20,
            "keywords": "revival, renewal, resurrection, evaluation, invitation",
            "meaning_upright": "Receiving a wake-up call\nDiscovering a new purpose in life\nBecoming totally and completely yourself\nReceiving a well-deserved reward\nPassing an evaluation or examination\nWelcoming the start of a new phase of life",
            "meaning_reversed": "Being weighed in the balances and found wanting\nFailing to measure up to a well-defined standard\nBeing caught goofing off or misbehaving\nFailing to prepare for an examination you know is coming\nRejecting an opportunity to reinvent yourself",
            "image": "http://dodecahedroid.com/pcio-tarot/rwpop1910/rwjudgement.jpg"
        },
        {
            "name": "The World",
            "suit": "major",
            "rank": 21,
            "keywords": "wholeness, integration, totality, completeness, fullness",
            "meaning_upright": "Having it all\nKnowing and loving yourself as completely as possible\nSeeing the interconnection of all things and people\nEnhancing your perspective\nLiving life to its fullest\nUnderstanding the meaning of life",
            "meaning_reversed": "Allowing greed and envy to prevent you from enjoying what you do possess\nFailing to see the larger design in ordinary events\nBelieving that everything that exists can be touched, counted, or measured\nFailing to see the divine reflected in those around you",
            "image": "http://dodecahedroid.com/pcio-tarot/rwpop1910/rwworld.jpg"
        },
        {
            "name": "Ace of Wands",
            "suit": "wands",
            "rank": 1,
            "keywords": "desire, inspiration, vision, creation, invention",
            "meaning_upright": "Being inspired\nIdentifying an important goal\nBeing given the opportunity to do whatever you want to do\nGiving or receiving direction\nSeeing a solution\nCreating something new\nBeing aroused, sexually or creatively",
            "meaning_reversed": "Failing to take advantage of a great opportunity\nBeing ineffectual or lazy\nMaking an inadequate effort\nWorking toward a goal, but lacking the resources or initiative to achieve success\nSetting inappropriate goals\nFailing to take a stand",
            "image": "http://dodecahedroid.com/pcio-tarot/rwpop1910/rwacewands.jpg"
        },
        {
            "name": "Two of Wands",
            "suit": "wands",
            "rank": 2,
            "keywords": "conflict, decision, option, individuality",
            "meaning_upright": "Having a choice\nOffering or being offered an option\nSeeing the value of another person's approach\nUnderstanding there's more than one way to \"skin a cat.\" Successfully doing more than one thing at a time\nBeing empowered to make a choice",
            "meaning_reversed": "Misrepresenting your intentions\nDoing one thing while desiring another\nChanging course mid-stream for no good reason\nRefusing to change your goal even when pursuing it no longer makes sense\nDisregarding the input of others",
            "image": "http://dodecahedroid.com/pcio-tarot/rwpop1910/rw02wands.jpg"
        },
        {
            "name": "Three of Wands",
            "suit": "wands",
            "rank": 3,
            "keywords": "implementation, action, exploration",
            "meaning_upright": "Putting a plan into motion\nTaking that critical first step\nMaking good things happen\nGoing beyond your limits\nBlazing new trails\nHitting the ground running\nSeeing your plans come to fruition",
            "meaning_reversed": "Procrastinating\nKnowing what to do, but refusing to do it\nLaunching a project without a clear definition of who should do what\nRejecting an opportunity to try something new\nFailing to finish what you start",
            "image": "http://dodecahedroid.com/pcio-tarot/rwpop1910/rw03wands.jpg"
        },
        {
            "name": "Four of Wands",
            "suit": "wands",
            "rank": 4,
            "keywords": "celebration, jubilation, community, teamwork, completion",
            "meaning_upright": "Sharing in a great celebration\nSharing in a communal sense of achievement and success\nPreparing for a party\nWorking together toward a common goal\nGiving or winning awards",
            "meaning_reversed": "Keeping your nose to the grindstone\nRecognizing good work by demanding more work\nFailing to share in a group celebration\nAllowing sour grapes to poison your moment in the sun\nRefusing to do your part",
            "image": "http://dodecahedroid.com/pcio-tarot/rwpop1910/rw04wands.jpg"
        },
        {
            "name": "Five of Wands",
            "suit": "wands",
            "rank": 5,
            "keywords": "confrontation, disruption, distinction, objection, strife",
            "meaning_upright": "Calmly expressing a dissenting opinion\nAllowing someone to use his or her own methods to get a job done\nOpening the floor for discussion or debate\nComparing progress made so far to standards set earlier",
            "meaning_reversed": "Berating others for their ridiculous opinions\nPicking fights\nOffering destructive criticism\nBaiting people with barbed remarks\nDisrupting progress with an endless stream of pointless objections",
            "image": "http://dodecahedroid.com/pcio-tarot/rwpop1910/rw05wands.jpg"
        },
        {
            "name": "Six of Wands",
            "suit": "wands",
            "rank": 6,
            "keywords": "victory, achievement, success, triumph",
            "meaning_upright": "Outperforming your peers\nWinning a competition\nBeing recognized as a capable person\nHaving your \"moment in the spotlight.\" Being cheered on by the crowd\nGetting an award\nEarning the admiration of others",
            "meaning_reversed": "Being a bad winner\nAllowing your achievements to inflate your ego\nLooking down on people who seem less capable\nCraving to be the center of attention\nGiving or receiving insincere praise\nEnvying the achievements of others",
            "image": "http://dodecahedroid.com/pcio-tarot/rwpop1910/rw06wands.jpg"
        },
        {
            "name": "Seven of Wands",
            "suit": "wands",
            "rank": 7,
            "keywords": "bravery, resolve, determination ",
            "meaning_upright": "Refusing to be silenced through fear or intimidation\nContinuing a fight against all odds\nBeing fierce\nDefending yourself against physical and emotional attacks\nRefusing to put up with abuse\nClinging to your values despite all pressure to abandon them",
            "meaning_reversed": "Having a chip on your shoulder\nTaking unnecessary risks as a means of proving your fearlessness\nLooking for an opportunity to take offense\nResponding to constructive criticism with defensiveness\nRefusing to stand up for yourself and your beliefs",
            "image": "http://dodecahedroid.com/pcio-tarot/rwpop1910/rw07wands.jpg"
        },
        {
            "name": "Eight of Wands",
            "suit": "wands",
            "rank": 8,
            "keywords": "speed, swiftness, responsiveness, change",
            "meaning_upright": "Taking swift action\nMoving forward with a plan as quickly as possible\nEnergizing yourself\nAdapting to sudden changes\nTaking setbacks in stride\nEmbracing the idea that nothing stays the same forever\nReacting quickly and appropriately to unforeseen problems",
            "meaning_reversed": "Giving in to panic\nRunning in circles and screaming\nInsisting things must always stay the same\nStirring the pot just to see what will happen\nRushing others\nRefusing to re-evaluate a schedule or program, even when it's clearly no longer appropriate",
            "image": "http://dodecahedroid.com/pcio-tarot/rwpop1910/rw08wands.jpg"
        },
        {
            "name": "Nine of Wands",
            "suit": "wands",
            "rank": 9,
            "keywords": "toughness, persistence, stamina, loyalty, release",
            "meaning_upright": "Sticking with it for the duration\nFulfilling your promises and obligations\nBearing up under incredible duress\nDragging yourself across the finish line\nPicking yourself up by your own bootstraps\nRefusing to quit\nGoing as far as you can go and being satisfied with your performance",
            "meaning_reversed": "Making yourself a martyr\nAbandoning your post\nGiving up at the first sign of opposition\nBeing prevented from fulfilling an obligation\nFailing to be dependable\nRefusing to let something go that needs to be released\nBeating a dead horse",
            "image": "http://dodecahedroid.com/pcio-tarot/rwpop1910/rw09wands.jpg"
        },
        {
            "name": "Ten of Wands",
            "suit": "wands",
            "rank": 10,
            "keywords": "exhaustion, resistance, burden, oppression",
            "meaning_upright": "Holding your own in extreme circumstances\nHelping others carry their burdens\nComing to the aid of the oppressed\nKnowing and being honest about your own limits\nRecognizing when you are not well-suited for a particular task",
            "meaning_reversed": "Taking on more work than you know you can handle\nRefusing to say \"No\" when you're already overloaded\nMaking a habit of working overtime\nShielding others from facing the consequences of their own poor judgment\nOver-extending yourself on a regular basis",
            "image": "http://dodecahedroid.com/pcio-tarot/rwpop1910/rw10wands.jpg"
        },
        {
            "name": "Page of Wands",
            "suit": "wands",
            "rank": 11,
            "keywords": "enthusiasm, eagerness, confidence, validation, affirmation",
            "meaning_upright": "Leaping at a new opportunity\nBeing a cheerleader or ardent advocate for your cause\nBeing a True Believer\nTaking first steps toward independence\nTrusting in your own abilities\nAsking for feedback",
            "meaning_reversed": "Basing your entire self-image on what others think\nSeizing every new idea that comes your way without question\nHabitually discounting input or feedback from others\nBeing so eager to \"do it yourself\" that you hinder your own progress",
            "image": "http://dodecahedroid.com/pcio-tarot/rwpop1910/rwpagewands.jpg"
        },
        {
            "name": "Knight of Wands",
            "suit": "wands",
            "rank": 12,
            "keywords": "boldness, bravado, passion, persuasion, advocacy ",
            "meaning_upright": "Charging ahead\nMaking rapid progress\nRefusing limits\nDazzling those around you with your wit and charm\nConvincing others of your right to leadership\nConvincing others to follow you\nBeing a catalyst for change",
            "meaning_reversed": "Blundering forward with inadequate skill or information\nRunning roughshod over the feelings of others\nUsing sex appeal to manipulate others\nForcing your leadership or ideology on others\nBeginning many projects without finishing any",
            "image": "http://dodecahedroid.com/pcio-tarot/rwpop1910/rwknightwands.jpg"
        },
        {
            "name": "Queen of Wands",
            "suit": "wands",
            "rank": 13,
            "keywords": "attention, attraction, unification, collaboration ",
            "meaning_upright": "Paying close attention\nHelping others focus on the issue at hand\nGetting everyone to work together\nIdentifying common ground\nBringing people together, despite their differences\nUsing reverse psychology",
            "meaning_reversed": "Being distracted, or using your charms or skills to distract others from the goal\nCalling attention to yourself with negative or unhealthy behaviors\nDisrupting group activities as a means of feeding your own ego",
            "image": "http://dodecahedroid.com/pcio-tarot/rwpop1910/rwqueenwands.jpg"
        },
        {
            "name": "King of Wands",
            "suit": "wands",
            "rank": 14,
            "keywords": "creativity, ingenuity, achievement, direction",
            "meaning_upright": "Putting old things together in new and exciting ways\nComing up with unexpected solutions\nUsing your experience to solve puzzles and problems\nDoing what you set out to do\nDirecting the efforts of others",
            "meaning_reversed": "Using your creativity to get out of honest work\nInvesting great energy in avoiding responsibility\nBoasting about achievements without putting your expertise to practical use\nLording it over others",
            "image": "http://dodecahedroid.com/pcio-tarot/rwpop1910/rwkingwands.jpg"
        },
        {
            "name": "Ace of Cups",
            "suit": "cups",
            "rank": 1,
            "keywords": "intuition, spirituality, affection, motivation",
            "meaning_upright": "Trusting your feelings\nOpening yourself to spirit\nAccepting and returning affection\nGetting in touch with what motivates you\nTaking advantage of an opportunity to express love to others\nListening to the still, small voice",
            "meaning_reversed": "Hiding your feelings\nSpurning an opportunity to love or be loved\nNumbing yourself to spiritual yearnings\nRejecting the counsel of your heart\nBecoming a puppet of your own emotions\nIndulging in hysteria or obsession",
            "image": "http://dodecahedroid.com/pcio-tarot/rwpop1910/rwacecups.jpg"
        },
        {
            "name": "Two of Cups",
            "suit": "cups",
            "rank": 2,
            "keywords": "union, attraction, combination, affection",
            "meaning_upright": "Being drawn to someone\nLonging for someone or something\nActing on your desires\nDiscovering a feeling is mutual\nDoing what makes you feel good\nMerging\nHealing broken ties\nAdmitting two people feel differently about each other and moving on",
            "meaning_reversed": "Burning bridges\nBecoming caught up in unhealthy codependency\nShutting out anyone but your chosen few\nObsessing on someone who does not return your affections\nDespairing over finding \"The One.\" Deceiving yourself about your true orientation",
            "image": "http://dodecahedroid.com/pcio-tarot/rwpop1910/rw02cups.jpg"
        },
        {
            "name": "Three of Cups",
            "suit": "cups",
            "rank": 3,
            "keywords": "celebration, expression, community, friendliness",
            "meaning_upright": "Celebrating your feelings or connections with others\nExpressing joy through song, dance, or physical affection\nWorking together with others who share your feelings\nPerforming acts of service as a way of saying, \"I love you.\" Embracing unconventional romantic arrangements",
            "meaning_reversed": "Mistaking giddiness for true affection\nBeing dominated by manic emotions\nExpecting everyone to always feel the same way you do\nDemanding unreasonable support from friends or family\nPartying to a dangerous or unhealthy extent",
            "image": "http://dodecahedroid.com/pcio-tarot/rwpop1910/rw03cups.jpg"
        },
        {
            "name": "Four of Cups",
            "suit": "cups",
            "rank": 4,
            "keywords": "boredom, listlessness, lethargy, stability, ingratitude",
            "meaning_upright": "Maintaining your emotional stability\nRefusing to give in to overwhelming emotions\nAppreciating what you have and refusing to take it for granted\nSeeing the value of long-term commitments",
            "meaning_reversed": "Being bored\nDaydreaming at the expense of your work\nRefusing to be engaged by opportunity\nTaking people and relationships for granted\nIgnoring romantic or spiritual opportunities\nSpurning inspiration",
            "image": "http://dodecahedroid.com/pcio-tarot/rwpop1910/rw04cups.jpg"
        },
        {
            "name": "Five of Cups",
            "suit": "cups",
            "rank": 5,
            "keywords": "loss, despair, re-evaluation, regret, uncertainty, repentance",
            "meaning_upright": "Acknowledging loss and moving on\nFocusing on how the glass remains \"half-full.\" Finding the silver lining in a dark cloud\nRecognizing that loss is a natural part of life\nEmbracing healthy grief\nLearning lessons from harsh consequences",
            "meaning_reversed": "Wallowing in unhealthy grief or self-pity\nRefusing to move on and let go\nClinging to the past\nObsessing on past lives and past loves\nFailing to live in the present\nBeating yourself up over past mistakes\nAllowing fear of failure to limit your efforts",
            "image": "http://dodecahedroid.com/pcio-tarot/rwpop1910/rw05cups.jpg"
        },
        {
            "name": "Six of Cups",
            "suit": "cups",
            "rank": 6,
            "keywords": "charity, sharing, sacrifice, cooperation, fairness",
            "meaning_upright": "Donating your time and talents to others\nTaking satisfaction in knowing how your efforts will aid others\nCreating a \"win-win\" scenario\nGiving even when you know repayment is not possible\nBeing motivated to do a good deed",
            "meaning_reversed": "Linking your sense of self-worth to the appraisals of others\nStriving to appear more needy than you really are\nTaking undeserved or unmerited charity\nBragging about your charitable efforts\nProfiteering in times of distress\nRefusing to share a burden",
            "image": "http://dodecahedroid.com/pcio-tarot/rwpop1910/rw06cups.jpg"
        },
        {
            "name": "Seven of Cups",
            "suit": "cups",
            "rank": 7,
            "keywords": "imagination, dreams, illusions, goals",
            "meaning_upright": "Motivating yourself with images of future success\nUsing visualization to encourage progress\nTaking an imaginative or creative approach to problem solving\nMaking dreams come true\nGleaning insight from personal visions",
            "meaning_reversed": "Obsessing on imaginary fears or uncertain consequences\nGiving in to emotional or political terrorism\nSpending more time dreaming than working\nFailing to envision the possible repercussions of your choices\nBeing controlled by fear",
            "image": "http://dodecahedroid.com/pcio-tarot/rwpop1910/rw07cups.jpg"
        },
        {
            "name": "Eight of Cups",
            "suit": "cups",
            "rank": 8,
            "keywords": "longing, dissatisfaction, quest, departure, withdrawal",
            "meaning_upright": "Wanting something better\nBlazing your own trail\nRealizing there must be more to life\nLeaving an unhealthy situation behind\nStarting your own business\nGoing on a retreat\nSeeking the \"still, small voice",
            "meaning_reversed": "Being implacable\nFinding fault\nNitpicking\nRefusing to settle down\nRunning away from problems or confrontations\nSaying, \"It's my way or the highway!\" Harping on past mistakes and disappointments\nThreatening to quit as a strategy to get your way",
            "image": "http://dodecahedroid.com/pcio-tarot/rwpop1910/rw08cups.jpg"
        },
        {
            "name": "Nine of Cups",
            "suit": "cups",
            "rank": 9,
            "keywords": "satisfaction, sensuality, luxury, pleasure",
            "meaning_upright": "Being delighted with your own achievements\nRecognizing your own talents and abilities\nReveling in the good things life has to offer\nIndulging yourself\nRelaxing and unwinding\nHaving everything you need in order to feel complete",
            "meaning_reversed": "Being smug\nSatisfying yourself at the expense of others\nBeing selfish\nOver-indulging\nAvoiding work that needs to be done\nClaiming achievements or skills you do not possess\nNever being satisfied, no matter how much you have",
            "image": "http://dodecahedroid.com/pcio-tarot/rwpop1910/rw09cups.jpg"
        },
        {
            "name": "Ten of Cups",
            "suit": "cups",
            "rank": 10,
            "keywords": "joy, fulfillment, overwhelming emotion, giddiness",
            "meaning_upright": "Having more than you ever dreamed\nBeing deeply thankful for all you've been given\nRecognizing the Hand of God in the gifts the Universe brings your way\nExperiencing transcendent joy\nAchieving domestic bliss",
            "meaning_reversed": "Comparing your achievements or relationships to unrealistic fantasy standards\nExperiencing emotions so intense they blunt your ability to cope with reality\nFeeling overwhelmed\nEnvying the achievements and happiness of others",
            "image": "http://dodecahedroid.com/pcio-tarot/rwpop1910/rw10cups.jpg"
        },
        {
            "name": "Page of Cups",
            "suit": "cups",
            "rank": 11,
            "keywords": "enthusiasm, first impressions, romanticism, superficiality",
            "meaning_upright": "Showing your emotions freely\nThrowing yourself into romance\nNursing a secret crush\nIndulging in romantic fantasy\nStarting a new relationship\nRecalling your first love\nExperiencing love for the first time\nConverting to a new religion",
            "meaning_reversed": "Mistaking a crush for true love\nReading romantic intention into innocent action\nFrantically trying to impress others\nIndulging in overly-sweet sentimentality\nPretending to have more romantic or spiritual experience than you possess",
            "image": "http://dodecahedroid.com/pcio-tarot/rwpop1910/rwpagecups.jpg"
        },
        {
            "name": "Knight of Cups",
            "suit": "cups",
            "rank": 12,
            "keywords": "fervor, zeal, moodiness, illumination",
            "meaning_upright": "Being deeply committed to a cause\nGiving in to strong emotions, from excitement to depression\nActing on intuition alone\nSolving problems intuitively\nBelieving in and basing decisions on ideals instead of realities\nBringing intuition or passion to the table",
            "meaning_reversed": "Becoming a fanatic\nRejecting information that suggests your intuitions are misguided\nAllowing your emotions to control you\nGiving in to jealousy, confrontation, and peer pressure\nHiding or ignoring intuitive insights",
            "image": "http://dodecahedroid.com/pcio-tarot/rwpop1910/rwknightcups.jpg"
        },
        {
            "name": "Queen of Cups",
            "suit": "cups",
            "rank": 13,
            "keywords": "insightfulness, spirituality, compassion, empathy, instinct",
            "meaning_upright": "Allowing yourself to be moved by the plight of others\nFeeling strong emotions\nPossessing unusual sympathy or empathy\nTrusting your feelings to guide you\nCalling on psychic abilities\nAchieving unity with Spirit",
            "meaning_reversed": "Becoming so caught up in matters of Spirit, you become detached from the world\nAllowing empathy to disable you (instead of inspire action)\nUsing psychic abilities to wield covert influence\nWallowing in emotionalism, sentiment, or self-pity",
            "image": "http://dodecahedroid.com/pcio-tarot/rwpop1910/rwqueencups.jpg"
        },
        {
            "name": "King of Cups",
            "suit": "cups",
            "rank": 14,
            "keywords": "wisdom, diplomacy, restraint, composure",
            "meaning_upright": "Keeping a stiff upper lip\nBeing brave and clear in the face of adverse circumstances\nSharing experience as a way of comforting others\nMaking fair and empathetic decisions\nHonoring the spirit, not just the letter, of the law",
            "meaning_reversed": "Allowing yourself to become rigid and unemotional\nMaking unfair decisions based on a hidden agenda\nMaking decisions without regard for their emotional impact on others\nAbusing spiritual authority\nUsing emotional or spiritual leverage to exercise unhealthy control over others",
            "image": "http://dodecahedroid.com/pcio-tarot/rwpop1910/rwkingcups.jpg"
        },
        {
            "name": "Ace of Swords",
            "suit": "swords",
            "rank": 1,
            "keywords": "logic, objectivity, intellect, choice",
            "meaning_upright": "Making objective decisions\nApplying logic\nReasoning your way out of a difficult situation\nSolving puzzles\nThinking things through\nEmphasizing the facts\nClearing your mind\nSeeking clarity",
            "meaning_reversed": "Applying ruthless or twisted logic\nGloating over your own superior intellect\nUsing quick thinking to deceive or confuse others\nConfusing snap judgments with quick thinking\nMaking decisions without thinking through consequences",
            "image": "http://dodecahedroid.com/pcio-tarot/rwpop1910/rwaceswords.jpg"
        },
        {
            "name": "Two of Swords",
            "suit": "swords",
            "rank": 2,
            "keywords": "denial, debate, impasse, truce",
            "meaning_upright": "Refusing to make a decision without getting the facts\nExploring both sides of an argument\nArguing passionately for what you believe in\nWeighing the issues\nEncouraging the open exchange of ideas\nDiscussing political or religious issues without getting \"hot under the collar",
            "meaning_reversed": "Rejecting evidence that conflicts with dearly-held beliefs\nArguing with others just for the sake of doing so\nNit-picking\nPutting off a decision because you're afraid to face the consequences\nPreventing others from getting the information they need to make good decisions",
            "image": "http://dodecahedroid.com/pcio-tarot/rwpop1910/rw02swords.jpg"
        },
        {
            "name": "Three of Swords",
            "suit": "swords",
            "rank": 3,
            "keywords": "variance, difference, dissatisfaction, heartache, rejection",
            "meaning_upright": "Being brave enough to see things as they really are\nExercising your critical eye\nBeing your own best critic\nAcknowledging that things don't always turn out as planned\nMoving past heartbreak to embrace a painful truth",
            "meaning_reversed": "Wallowing in despair\nAllowing yourself to be completely crushed by the thoughts, words, or deeds of another\nJudging yourself too harshly\nHolding yourself to an unrealistic standard of excellence\nWearing your heart on your sleeve while carrying a chip on your shoulder",
            "image": "http://dodecahedroid.com/pcio-tarot/rwpop1910/rw03swords.jpg"
        },
        {
            "name": "Four of Swords",
            "suit": "swords",
            "rank": 4,
            "keywords": "meditation, contemplation, perspective, mindset",
            "meaning_upright": "Thinking over your plans before putting them into action\nPausing to meditate or clear your mind\nTaking time to understand someone or something before criticizing it\nResting\nOccupying your thoughts with a healthy distraction",
            "meaning_reversed": "Failing to think things through\nMistaking procrastination for thoughtfulness\nAdopting a point of view and refusing to reconsider your conclusions, even when presented with refuting evidence\nAllowing chaos and whimsy to dominate your thoughts",
            "image": "http://dodecahedroid.com/pcio-tarot/rwpop1910/rw04swords.jpg"
        },
        {
            "name": "Five of Swords",
            "suit": "swords",
            "rank": 5,
            "keywords": "selfishness, hostility, irrationality, self-preservation",
            "meaning_upright": "Acting in your own best interest\nChoosing to stand up for yourself\nNot backing down from disagreement and discord\nTaking a stand\nRefusing to go along with an unethical plan\nKnowing when to bend the rules",
            "meaning_reversed": "Taking advantage of others\nIntimidating others\nActing in an unethical manner\nPicking fights\nUsing words to goad others into violence and irrationality\nIgnoring rules you've agreed to abide by\nLooking out for yourself while allowing harm to come to others\nGloating over victory",
            "image": "http://dodecahedroid.com/pcio-tarot/rwpop1910/rw05swords.jpg"
        },
        {
            "name": "Six of Swords",
            "suit": "swords",
            "rank": 6,
            "keywords": "adaptation, adjustments, science, travel",
            "meaning_upright": "Making the best of a bad situation\nRecovering from defeat\nResetting expectations\nMaking allowances for unexpected circumstances\nHelping others who find themselves in dire circumstances\nChanging the way you see the world\nBroadening your perspective through study or travel",
            "meaning_reversed": "Refusing to accept that things have changed\nPlaying the victim\nRejecting the idea that your actions have consequences\nApplying scientific criteria to matters of faith, or confusing faith with science\nBelieving the whole world should be like your small corner of it",
            "image": "http://dodecahedroid.com/pcio-tarot/rwpop1910/rw06swords.jpg"
        },
        {
            "name": "Seven of Swords",
            "suit": "swords",
            "rank": 7,
            "keywords": "dishonesty, presumption, sneakiness, assumptions",
            "meaning_upright": "Refusing to do something dishonest, even when there's no chance of ever being caught\nHandling a difficult situation with finesse\nPointing out assumptions\nActing ethically in public and in private\nLiving a life that is beyond reproach",
            "meaning_reversed": "Stealing or lying\nDoing whatever you can get away with, simply because you can\nLooking for a way around consequences\nJustifying wicked behavior by focusing on the wickedness of others\nFailing to examine your own motives and prejudices",
            "image": "http://dodecahedroid.com/pcio-tarot/rwpop1910/rw07swords.jpg"
        },
        {
            "name": "Eight of Swords",
            "suit": "swords",
            "rank": 8,
            "keywords": "restriction, limitation, confinement, helplessness",
            "meaning_upright": "Honoring limits\nRespecting the rules\nDeciding to go on a diet for your health's sake\nRecognizing you cannot always be in control\nIdentifying obstacles to further progress\nRefusing to think about unhealthy or unethical options\nAsking for assistance",
            "meaning_reversed": "Feeling trapped\nBeing lost in a maze of rules and regulations\nGiving in to despair\nPlaying the victim\nAllowing others to dictate what you can and cannot do\nBeing rendered helpless\nHaving very few options\nFailing to look for a way out",
            "image": "http://dodecahedroid.com/pcio-tarot/rwpop1910/rw08swords.jpg"
        },
        {
            "name": "Nine of Swords",
            "suit": "swords",
            "rank": 9,
            "keywords": "remorse, worry, distraught, conclusion",
            "meaning_upright": "Refusing to worry about what you cannot control\nRejecting anxiety\nJudging your own performance with kindness and gentleness\nUsing meditation to quiet a troubled mind\nConfronting nightmares and fears\nDrawing a conclusion and putting an issue out of your mind",
            "meaning_reversed": "Torturing yourself with regrets\nSecond-guessing your every move\nBeating yourself up for your mistakes\nDepression\nObsessing on errors and overlooked details\nRefusing to handle stress in healthy ways\nRuining your ability to appreciate the present by dwelling on the past\nDebating irreversible decisions",
            "image": "http://dodecahedroid.com/pcio-tarot/rwpop1910/rw09swords.jpg"
        },
        {
            "name": "Ten of Swords",
            "suit": "swords",
            "rank": 10,
            "keywords": "exhaustion, ruin, disaster, stamina, obsession",
            "meaning_upright": "Seeing the signs that you've reached your limits\nPaying attention to what your body is trying to tell you\nGiving in to the need for rest and renewal\nAcknowledging that you've hit bottom\nCommitting to a turnaround\nKnowing the worst is over",
            "meaning_reversed": "Accepting defeat prematurely\nDriving yourself to total exhaustion, especially mentally\nExperiencing a mental breakdown\nObsessing on a problem to the breaking point\nGiving up\nRefusing to move from thought to action\nDeeply unhealthy thoughts",
            "image": "http://dodecahedroid.com/pcio-tarot/rwpop1910/rw10swords.jpg"
        },
        {
            "name": "Page of Swords",
            "suit": "swords",
            "rank": 11,
            "keywords": "student, apprentice, scholarship, information",
            "meaning_upright": "Pursuing a course of study\nAsking good questions\nInvesting time in study and practice\nDoing research\nMaking a habit of learning new things\nStarting an investigation\nOutlining what you need to know\nFinding a mentor or teacher",
            "meaning_reversed": "Pretending to have knowledge or sophistication you do not possess\nCheating on an exam\nFeigning interest as a way of gaining favor\nConsidering only the evidence that supports conclusions you've already drawn\nRejecting the wise counsel of experienced teachers",
            "image": "http://dodecahedroid.com/pcio-tarot/rwpop1910/rwpageswords.jpg"
        },
        {
            "name": "Knight of Swords",
            "suit": "swords",
            "rank": 12,
            "keywords": "bluntness, intelligence, incisiveness, investigation",
            "meaning_upright": "Speaking your mind\nMaking your opinions known\nOffering constructive criticism\nSharing your knowledge\nMaking insightful observations\nPinpointing the problem\nClarifying what others have said\nGiving clear direction to others\nUncovering the truth",
            "meaning_reversed": "Stating your opinions as fact\nPicking fights\nStarting arguments\nUsing clever insults to undermine the confidence of others\nTossing reason out the window\nSpeaking without taking the feelings of others into account\nGoing on a witch hunt\nDistorting evidence",
            "image": "http://dodecahedroid.com/pcio-tarot/rwpop1910/rwknightswords.jpg"
        },
        {
            "name": "Queen of Swords",
            "suit": "swords",
            "rank": 13,
            "keywords": "grace, skill, wit, charm, aptitude",
            "meaning_upright": "Exercising tact or using diplomacy\nDefusing a tense situation\nKnowing what to say and how to say it\nMaking others feel comfortable and confident\nBringing out the best in everyone\nHaving a way with words\nTelling jokes\nPossessing a knack for music, math, art, or science",
            "meaning_reversed": "Knowing exactly what to say to destroy another person\nWithholding critical information\nUsing a barbed tongue to upset others\nEmploying sarcasm\nMimicking others unkindly\nMaking light of the less fortunate\nBeing disrespectful\nFailing to use the talent you've been given",
            "image": "http://dodecahedroid.com/pcio-tarot/rwpop1910/rwqueenswords.jpg"
        },
        {
            "name": "King of Swords",
            "suit": "swords",
            "rank": 14,
            "keywords": "genius, expertise, decision, verdict",
            "meaning_upright": "Expressing yourself with firmness and authority\nRendering a final decision\nConsulting an expert\nCalling in advisors and consultants\nComing to a final conclusion\nReaching a beneficial agreement based on sound information",
            "meaning_reversed": "Insisting on having the last word\nFlaunting your intellectual capability\nTalking \"over the heads\" of others\nWaffling on an important decision\nConstantly changing your mind\nRefusing to make choices that are in your own best interest\nWishing in vain you could take back what's been said",
            "image": "http://dodecahedroid.com/pcio-tarot/rwpop1910/rwkingswords.jpg"
        },
        {
            "name": "Ace of Pentacles",
            "suit": "coins",
            "rank": 1,
            "keywords": "health, wealth, practicality, receiving",
            "meaning_upright": "Outlining a plan for achieving prosperity\nBecoming aware of opportunities to improve income or health\nRealizing you have everything you need\nAppreciating everything the Universe has given you\nReceiving the perfect gift at the perfect time",
            "meaning_reversed": "Indulging in relentless consumerism\nWanting more, no matter how much you have\nObsessing on your account balance\nSuffering from hypochondria\nConsuming blessings without expressing gratitude\nTaking what you want without concern for the needs of others",
            "image": "http://dodecahedroid.com/pcio-tarot/rwpop1910/rwacepentacles.jpg"
        },
        {
            "name": "Two of Pentacles",
            "suit": "coins",
            "rank": 2,
            "keywords": "evaluation, decision, budgeting, diagnosis",
            "meaning_upright": "Weighing options\nComparing prices\nDetermining the value of one option over another\nJuggling resources to make ends meet\nMaking difficult choices based on what's best for your body or your bankbook\nLooking at the bottom line\nAsking for a second opinion on health issues",
            "meaning_reversed": "Engaging in endless price comparison\nPutting off a buying decision for fear of finding a slightly better value later on\nBuying something without regard for value\nBreaking your budget with unnecessary expenses\nEngaging in behavior with no regard for how your body or bankbook will be impacted",
            "image": "http://dodecahedroid.com/pcio-tarot/rwpop1910/rw02pentacles.jpg"
        },
        {
            "name": "Three of Pentacles",
            "suit": "coins",
            "rank": 3,
            "keywords": "expression, production, work, contribution",
            "meaning_upright": "Finishing a project\nSetting and meeting standards\nPerforming according to specifications\nMaking something others value\nCreating something new\nDoing your part in a group project\nDelivering exactly what others have asked for",
            "meaning_reversed": "Pandering to the tastes of others\nFailing to deliver what you've promised\nNot delivering your best work unless closely supervised\nIgnoring or breaking agreements with those who have invested in you\nRefusing to do your part\nFailing to abide by a clearly-outlined agreement with yourself or others",
            "image": "http://dodecahedroid.com/pcio-tarot/rwpop1910/rw03pentacles.jpg"
        },
        {
            "name": "Four of Pentacles",
            "suit": "coins",
            "rank": 4,
            "keywords": "protection, conservation, preservation, safety",
            "meaning_upright": "Saving for a rainy day\nFasting as part of a spiritual practice\nDieting in an effort to improve your body\nAbstaining from sex as a way of honoring a spiritual tradition or personal promise\nBeing financially conservative\nEstablishing a trust fund\nOpening a savings account",
            "meaning_reversed": "Being stingy\nRefusing to spend money that needs to be spent\nWithholding sex from your partner\nTaking care of your own needs exclusively, without regard for the needs of others\nSpending a dollar to save a penny\nFailing to be a good manager of the blessings you've been given",
            "image": "http://dodecahedroid.com/pcio-tarot/rwpop1910/rw04pentacles.jpg"
        },
        {
            "name": "Five of Pentacles",
            "suit": "coins",
            "rank": 5,
            "keywords": "poverty, destitution, need, crisis",
            "meaning_upright": "Recognizing your needs and taking action to fulfill them\nDoing as much as you can do with what little you have\nAdmitting you need help\nEmbracing the aid that comes your way\nFocusing on what you have versus what you don't\nLooking for the light at the end of the tunnel",
            "meaning_reversed": "Exaggerating your financial or physical needs\nAdopting a poverty mentality\nRefusing to support yourself\nRefusing offers of support\nPlaying the martyr\nTurning down opportunities to improve your health or finances\nWallowing in misery",
            "image": "http://dodecahedroid.com/pcio-tarot/rwpop1910/rw05pentacles.jpg"
        },
        {
            "name": "Six of Pentacles",
            "suit": "coins",
            "rank": 6,
            "keywords": "charity, fairness, cooperation, sharing",
            "meaning_upright": "Giving time, money, or effort to a charity\nTaking part in a group effort\nLending your resources to others without expecting anything in return\nMaking sure everyone is treated equally\nWorking together toward a common goal\nRedistributing wealth, time, or attention\nTithing\nSharing credit for your success",
            "meaning_reversed": "Making a loan as a means of gaining control over someone\nUsing charitable acts to draw attention to yourself\nDividing work or resources unfairly\nFailing to do your part in a group effort\nIgnoring obligations and commitments",
            "image": "http://dodecahedroid.com/pcio-tarot/rwpop1910/rw06pentacles.jpg"
        },
        {
            "name": "Seven of Pentacles",
            "suit": "coins",
            "rank": 7,
            "keywords": "assessment, evaluation, re-evaluation, reflection",
            "meaning_upright": "Measuring progress toward your goal\nLooking at results with an eye toward improving performance\nAsking, \"How happy am I?\" Coming up with ideas for improving your health or prosperity\nDeciding it's time for a change\nExpressing an honest opinion",
            "meaning_reversed": "Becoming distracted by melancholy thoughts\nLonging for \"the good old days.\" Beating yourself up over lost opportunities\nJudging your own work harshly\nHolding others to inappropriate standards\nRefusing to take part in a project, then whining about the quality of the outcome",
            "image": "http://dodecahedroid.com/pcio-tarot/rwpop1910/rw07pentacles.jpg"
        },
        {
            "name": "Eight of Pentacles",
            "suit": "coins",
            "rank": 8,
            "keywords": "effort, work diligence, skill",
            "meaning_upright": "Doing your best\nBringing enthusiasm and zeal to your work\nMaking an effort to be the best you can be\nFinding the work that is right for you\nTaking care of the small details\nBecoming a finely skilled craftsperson\nBuilding something with your hands\nMaking a handmade gift",
            "meaning_reversed": "Working yourself to death\nDoing a half-hearted or sloppy job\nContinuing in a job you hate\nBuying thoughtless gifts\nProducing work with shoddy craftsmanship\nRushing through your work\nRejecting opportunities to learn more about your craft",
            "image": "http://dodecahedroid.com/pcio-tarot/rwpop1910/rw08pentacles.jpg"
        },
        {
            "name": "Nine of Pentacles",
            "suit": "coins",
            "rank": 9,
            "keywords": "training, discipline, confidence, enough",
            "meaning_upright": "Investing time in learning or teaching a difficult task\nRestraining yourself from physical or financial extremes\nMaking sacrifices as a way of achieving larger goals\nBreaking a complex task down into simple steps\nWanting what you have\nKnowing the difference between needs and wants",
            "meaning_reversed": "Being assigned to a task without being trained to perform it\nPursuing a position for which you are not qualified\nDisregarding requirements\nRefusing to dedicate adequate time or attention when learning about something or someone new\nAlways craving more",
            "image": "http://dodecahedroid.com/pcio-tarot/rwpop1910/rw09pentacles.jpg"
        },
        {
            "name": "Ten of Pentacles",
            "suit": "coins",
            "rank": 10,
            "keywords": "wealth, abundance, acquisition, greed",
            "meaning_upright": "Celebrating your physical and financial blessings\nRealizing how lucky or how blessed you are\nBeing satisfied with your physical and financial achievements\nTaking best advantage of \"times of plenty.\" Enjoying a feast\nShowering friends or family with gifts",
            "meaning_reversed": "Spending all of your money on extravagant gifts and possessions\nTrying too hard to impress others with your wealth or physique\nGiving an inappropriately expensive gift as a means of currying favor\nObsessing on matters of weight, health, or finance",
            "image": "http://dodecahedroid.com/pcio-tarot/rwpop1910/rw10pentacles.jpg"
        },
        {
            "name": "Page of Pentacles",
            "suit": "coins",
            "rank": 11,
            "keywords": "practicality, prosperity, learning, growth, adolescence",
            "meaning_upright": "Learning the value of a dollar\nStarting a savings plan\nTaking the first steps toward getting out of debt\nLearning new physical tasks\nDiscovering your sexuality\nLaunching a diet, a weight-lifting program, or a health-related effort\nLearning by doing",
            "meaning_reversed": "Trying to appear healthier or wealthier than you really are\nSpending money carelessly\nLiving strictly for today, with no thought of tomorrow\nPossessing immature attitudes toward sex and sexuality\nUsing wealth or beauty as an excuse for not having to learn and grow",
            "image": "http://dodecahedroid.com/pcio-tarot/rwpop1910/rwpagepentacles.jpg"
        },
        {
            "name": "Knight of Pentacles",
            "suit": "coins",
            "rank": 12,
            "keywords": "caution, focus, realism, invention",
            "meaning_upright": "Spending money wisely\nSaving for a rainy day\nPaying close attention to physical or financial details\nKnowing where every dollar goes\nHaving safe sex\nPreferring facts to \"good feelings.\" Finding creative ways to \"make do\" with resources on hand\nCompleting a new invention",
            "meaning_reversed": "Throwing caution to the four winds\nSpending without regard for consequence\nSpending on luxury when necessities are lacking\nEscaping stress by spending money\nObsessing on tiny physical or financial details\nPerpetually chasing after some new bauble\nCopying another's work and claiming it as your own",
            "image": "http://dodecahedroid.com/pcio-tarot/rwpop1910/rwknightpentacles.jpg"
        },
        {
            "name": "Queen of Pentacles",
            "suit": "coins",
            "rank": 13,
            "keywords": "luxury, comfort, resourcefulness, generosity, prosperity",
            "meaning_upright": "Appreciating fine food, fine wine, beautiful art, beautiful bodies, or any of the better things in life\nReveling in healthy sexuality\nTreating yourself\nSplurging on the occasional \"nice to have\" item\nRewarding someone with compensation above and beyond expectations\nHaving it all",
            "meaning_reversed": "Indulging in gluttony or greediness\nBecoming insatiable\nBlunting the impact of treats by indulging in them too often\nProviding physical comfort without providing for emotional needs\nAllowing a feeling of entitlement to distort your gratitude for what you're given",
            "image": "http://dodecahedroid.com/pcio-tarot/rwpop1910/rwqueenpentacles.jpg"
        },
        {
            "name": "King of Pentacles",
            "suit": "coins",
            "rank": 14,
            "keywords": "stability, dependability, confidence, intervention",
            "meaning_upright": "Becoming debt-free\nHaving more than enough to get by\nMaking contributions to a savings plan\nTaking a new job with an eye toward advancing your career\nBuying life or health insurance\nBeing confident in the bedroom\nTaking on the role of enforcer when called upon to do so",
            "meaning_reversed": "Becoming so conservative you resist all change on principle alone\nIgnoring innovations in the name of preserving tradition\nBeing smug or cocky\nBecoming ruthlessly dedicated to profit or pleasure\nBeing sexually selfish\nBossing others around, especially when you're not empowered to do so",
            "image": "http://dodecahedroid.com/pcio-tarot/rwpop1910/rwkingpentacles.jpg"
        }
    ]
}